{"total":880,"limit":25,"offset":0,"prev_offset":null,"next_offset":25,"page_size":25,"this_page":1,"num_this_page":25,"prev_api":"","next_api":"http://ddr.densho.org/api/0.2/narrator/?format=json&limit=25&offset=25","objects":[{"id":"361","model":"narrator","index":"0 0/{'value': 880, 'relation': 'eq'}","links":{"html":"http://ddr.densho.org/narrators/361/?format=json","json":"http://ddr.densho.org/api/0.2/narrator/361/?format=json","img":"https://ddr.densho.org/media/narrators/akay.jpg","thumb":"https://ddr.densho.org/media/narrators/akay.jpg","interviews":"http://ddr.densho.org/api/0.2/narrator/361/interviews/?format=json"},"display_name":"Kay Aiko Abe","bio":"Nisei female. Born May 9, 1927, in Selleck, Washington. Spent much of childhood in Beaverton, Oregon, where father owned a farm. Influenced at an early age by parents' conversion to Christianity. During World War II, removed to the Portland Assembly Center, Oregon, and the Minidoka concentration camp, Idaho. After the war, worked to establish a successful volunteer program to feed the homeless in Seattle, Washington.","generation":"Nisei","d_date":"2018-06-26T00:00:00","birth_location":"Selleck, Washington","b_date":"1927-05-09T00:00:00"},{"id":"291","model":"narrator","index":"1 1/{'value': 880, 'relation': 'eq'}","links":{"html":"http://ddr.densho.org/narrators/291/?format=json","json":"http://ddr.densho.org/api/0.2/narrator/291/?format=json","img":"https://ddr.densho.org/media/narrators/aart.jpg","thumb":"https://ddr.densho.org/media/narrators/aart.jpg","interviews":"http://ddr.densho.org/api/0.2/narrator/291/interviews/?format=json"},"display_name":"Art Abe","bio":"Nisei male. Born June 12, 1921, in Seattle, Washington. Grew up in an area of Seattle with few other Japanese Americans, and was attending the University of Washington when Japan bombed Pearl Harbor. Removed to the Puyallup Assembly Center, Washington, and the Minidoka concentration camp, Idaho. Left Minidoka several times on temporary work leave to work on farms in the area. Suffered tragic loss in camp when father got lost outside collecting wood and perished in the elements. Volunteered for the army and served in the signal corps, eventually working for the Civil Aeronautics Administration and Boeing. Also one of the early members of the Seattle Nisei Veterans Committee.","generation":"Nisei","d_date":"2015-08-13T00:00:00","birth_location":"Seattle, Washington","b_date":"1921-06-12T00:00:00"},{"id":"293","model":"narrator","index":"2 2/{'value': 880, 'relation': 'eq'}","links":{"html":"http://ddr.densho.org/narrators/293/?format=json","json":"http://ddr.densho.org/api/0.2/narrator/293/?format=json","img":"https://ddr.densho.org/media/narrators/asharon.jpg","thumb":"https://ddr.densho.org/media/narrators/asharon.jpg","interviews":"http://ddr.densho.org/api/0.2/narrator/293/interviews/?format=json"},"display_name":"Sharon Tanagi Aburano","bio":"Nisei female. Born October 31, 1925, in Seattle, Washington. Family owned and operated a successful grocery store prior to World War II. After the bombing of Pearl Harbor, removed to the Puyallup Assembly Center, Washington, and the Minidoka concentration camp, Idaho. Left camp in 1944 to attend St. Mary's School of Nursing in Rochester, Minnesota. Worked in the medical field in Minnesota and Seattle before eventually pursuing a career in education.","generation":"Nisei","birth_location":"Seattle, Washington","b_date":"1925-10-31T00:00:00"},{"id":"597","model":"narrator","index":"3 3/{'value': 880, 'relation': 'eq'}","links":{"html":"http://ddr.densho.org/narrators/597/?format=json","json":"http://ddr.densho.org/api/0.2/narrator/597/?format=json","img":"https://ddr.densho.org/media/narrators/atoshiko.jpg","thumb":"https://ddr.densho.org/media/narrators/atoshiko.jpg","interviews":"http://ddr.densho.org/api/0.2/narrator/597/interviews/?format=json"},"display_name":"Toshiko Aiboshi","bio":"Nisei female. Born July 8, 1928, in Boyle Heights, California. At an early age, went to live with family friends when father passed away and mother contracted tuburculosis. During World War II, removed to the Santa Anita Assembly Center, California, and the Granada (Amache) concentration camp, Colorado. While in camp, mother relapsed and Toshiko again went to live with the same family friends. After the war, returned to California.","generation":"Nisei","birth_location":"Boyle Heights, California","b_date":"1928-04-08T00:00:00"},{"id":"321","model":"narrator","index":"4 4/{'value': 880, 'relation': 'eq'}","links":{"html":"http://ddr.densho.org/narrators/321/?format=json","json":"http://ddr.densho.org/api/0.2/narrator/321/?format=json","img":"https://ddr.densho.org/media/narrators/ayae.jpg","thumb":"https://ddr.densho.org/media/narrators/ayae.jpg","interviews":"http://ddr.densho.org/api/0.2/narrator/321/interviews/?format=json"},"display_name":"Yae Aihara","bio":"Nisei female. Born August 18, 1925 in Tacoma, Washington. Raised in Seattle, Washington, where family operated a grocery store. Attended Washington Grammar School and Garfield High School in Seattle. Following the bombing of Pearl Harbor, father was arrested by the FBI and sent to Missoula internment camp, Montana. Family was removed to Puyallup Assembly Center, Washington, and Minidoka concentration camp, Idaho. In 1943, father decided to repatriate to Japan. The family was transported to Ellis Island detention station to reunite with father and board a repatriation ship, the SS Gripsholm. Transferred to Crystal City internment camp, Texas, after being denied entry on SS Gripsholm. Remained in Crystal City for duration of the war. Resettled to Boyle Heights neighborhood of Los Angeles in 1946.","generation":"Nisei","birth_location":"Tacoma, Washington","b_date":"1925-08-18T00:00:00"},{"id":"312","model":"narrator","index":"5 5/{'value': 880, 'relation': 'eq'}","links":{"html":"http://ddr.densho.org/narrators/312/?format=json","json":"http://ddr.densho.org/api/0.2/narrator/312/?format=json","img":"https://ddr.densho.org/media/narrators/anelson.jpg","thumb":"https://ddr.densho.org/media/narrators/anelson.jpg","interviews":"http://ddr.densho.org/api/0.2/narrator/312/interviews/?format=json"},"display_name":"Nelson Takeo Akagi","bio":"Nisei male. Born July 27, 1923, in Lindsay, California. Following the bombing of Pearl Harbor, moved with family to Idaho for \"voluntary evacuation,\" where they worked harvesting sugar beets for the U&I Sugar Company. Volunteered for the army during World War II. Served with the 522nd Field Artillery Battalion, and was present at the liberation of one of Dachau concentration camp's sub-camps. After the war, settled in Salt Lake City, Utah.","generation":"Nisei","birth_location":"Lindsay, California","b_date":"1923-07-27T00:00:00"},{"id":"178","model":"narrator","index":"6 6/{'value': 880, 'relation': 'eq'}","links":{"html":"http://ddr.densho.org/narrators/178/?format=json","json":"http://ddr.densho.org/api/0.2/narrator/178/?format=json","img":"https://ddr.densho.org/media/narrators/atom.jpg","thumb":"https://ddr.densho.org/media/narrators/atom.jpg","interviews":"http://ddr.densho.org/api/0.2/narrator/178/interviews/?format=json"},"display_name":"Tom Akashi","bio":"Nisei male. Born June 7, 1929, in Merced, California. Grew up in Mount Eden, California, and was removed to the Tanforan Assembly Center, California, after the bombing of Pearl Harbor. Incarcerated at the Topaz concentration camp in Utah, then moved to Tule Lake concentration camp after family volunteered to move to Japan. While at Tule Lake, joined a pro-Japan organization created by father, the Sokoku Kenkyu Seinen Dan, (Young Men's Association for the Study of the Motherland). Renounced U.S. citizenship and expatriated to Japan with parents and siblings in 1945. Lived and worked in Japan until 1948, when returned to the United States. Author of Betrayed Trust: The Story of a Deported Issei and His American-Born Family During WWII, published in 2004.","generation":"Nisei","d_date":"2012-09-30T00:00:00","birth_location":"Merced, California","b_date":"1929-06-07T00:00:00"},{"id":"212","model":"narrator","index":"7 7/{'value': 880, 'relation': 'eq'}","links":{"html":"http://ddr.densho.org/narrators/212/?format=json","json":"http://ddr.densho.org/api/0.2/narrator/212/?format=json","img":"https://ddr.densho.org/media/narrators/amas.jpg","thumb":"https://ddr.densho.org/media/narrators/amas.jpg","interviews":"http://ddr.densho.org/api/0.2/narrator/212/interviews/?format=json"},"display_name":"Mas Akiyama","bio":"Nisei male. Born May 19, 1917, in Eastport, Idaho, and spent childhood in Spokane, Washington. In 1933 traveled to Japan with family where father became ill and died. Attended school in Japan for three years and then returned to Spokane in 1936 and worked on a farm. Following the bombing of Pearl Harbor, volunteered for military service but failed the medical examination. During the war, took brief trips to Manzanar concentration camp, California, a camp in Arkansas, and Minidoka concentration camp, Idaho. After the war worked as a painter of large signs in Spokane.","generation":"Nisei","d_date":"2014-11-29T00:00:00","birth_location":"Eastport, Idaho","b_date":"1917-05-19T00:00:00"},{"id":"755","model":"narrator","index":"8 8/{'value': 880, 'relation': 'eq'}","links":{"html":"http://ddr.densho.org/narrators/755/?format=json","json":"http://ddr.densho.org/api/0.2/narrator/755/?format=json","img":"https://ddr.densho.org/media/narrators/asab.jpg","thumb":"https://ddr.densho.org/media/narrators/asab.jpg","interviews":"http://ddr.densho.org/api/0.2/narrator/755/interviews/?format=json"},"display_name":"Sab Akiyama","bio":"Nisei male. Born April 7, 1924, in Oak Grove, Oregon. Grew up in the Hood River, Oregon, area, where parents ran a farm. During World War II, was removed to the Pinedale Assembly Center, California, and the Tule Lake concentration camp, California, and Minidoka concentration camp, Idaho. Volunteered to serve in the U.S. Army during the war. After military service, returned to the Hood River area.","generation":"Nisei","d_date":"2017-09-07T00:00:00","birth_location":"Hood River, Oregon","b_date":"1924-04-07T00:00:00"},{"id":"355","model":"narrator","index":"9 9/{'value': 880, 'relation': 'eq'}","links":{"html":"http://ddr.densho.org/narrators/355/?format=json","json":"http://ddr.densho.org/api/0.2/narrator/355/?format=json","img":"https://ddr.densho.org/media/narrators/asumie.jpg","thumb":"https://ddr.densho.org/media/narrators/asumie.jpg","interviews":"http://ddr.densho.org/api/0.2/narrator/355/interviews/?format=json"},"display_name":"Sumie Suguro Akizuki","bio":"Nisei female. Born January 2, 1929, in Bellevue, Washington. Grew up in Bellevue before being removed to the Pinedale Assembly Center and Tule Lake concentration camp, California, during World War II. After leaving camp, returned to Bellevue.","generation":"Nisei","d_date":"2016-11-22T00:00:00","birth_location":"Bellevue, Washington","b_date":"1929-01-02T00:00:00"},{"id":"470","model":"narrator","index":"10 10/{'value': 880, 'relation': 'eq'}","links":{"html":"http://ddr.densho.org/narrators/470/?format=json","json":"http://ddr.densho.org/api/0.2/narrator/470/?format=json","img":"https://ddr.densho.org/media/narrators/aharry.jpg","thumb":"https://ddr.densho.org/media/narrators/aharry.jpg","interviews":"http://ddr.densho.org/api/0.2/narrator/470/interviews/?format=json"},"display_name":"Harry Akune","bio":"Nisei male, born May 20, 1920. During World War II, served as an interpreter with the Military Intelligence Service.","generation":"Nisei","d_date":"2011-09-26T00:00:00","birth_location":"","b_date":"1920-05-20T00:00:00"},{"id":"471","model":"narrator","index":"11 11/{'value': 880, 'relation': 'eq'}","links":{"html":"http://ddr.densho.org/narrators/471/?format=json","json":"http://ddr.densho.org/api/0.2/narrator/471/?format=json","img":"https://ddr.densho.org/media/narrators/akenjiro.jpg","thumb":"https://ddr.densho.org/media/narrators/akenjiro.jpg","interviews":"http://ddr.densho.org/api/0.2/narrator/471/interviews/?format=json"},"display_name":"Kenjiro Akune","bio":"Nisei male, born July 3, 1923. During World War II, served with the Military Intelligence Service.","generation":"Nisei","birth_location":"","b_date":"1923-07-03T00:00:00"},{"id":"1","model":"narrator","index":"12 12/{'value': 880, 'relation': 'eq'}","links":{"html":"http://ddr.densho.org/narrators/1/?format=json","json":"http://ddr.densho.org/api/0.2/narrator/1/?format=json","img":"https://ddr.densho.org/media/narrators/agene.jpg","thumb":"https://ddr.densho.org/media/narrators/agene.jpg","interviews":"http://ddr.densho.org/api/0.2/narrator/1/interviews/?format=json"},"display_name":"Gene Akutsu","bio":"Nisei male. Born September 23, 1925, in Seattle, Washington. Spent prewar childhood in Seattle's Nihonmachi. Incarcerated at Puyallup Assembly Center, Washington, and Minidoka concentration camp, Idaho. Refused to participate in the draft and was imprisoned at McNeil Island Penitentiary, Washington, for draft resistance. Resettled in Seattle.","generation":"Nisei","d_date":"2011-10-06T00:00:00","birth_location":"Seattle, Washington","b_date":"1925-09-23T00:00:00"},{"id":"2","model":"narrator","index":"13 13/{'value': 880, 'relation': 'eq'}","links":{"html":"http://ddr.densho.org/narrators/2/?format=json","json":"http://ddr.densho.org/api/0.2/narrator/2/?format=json","img":"https://ddr.densho.org/media/narrators/ajim.jpg","thumb":"https://ddr.densho.org/media/narrators/ajim.jpg","interviews":"http://ddr.densho.org/api/0.2/narrator/2/interviews/?format=json"},"display_name":"Jim Akutsu","bio":"Nisei male. Born January 25, 1920, in Seattle, Washington. Incarcerated at the Puyallup Assembly Center, Washington, and Minidoka concentration camp, Idaho. Resisted the draft, with the rationale that the U.S. government had classified him 4-C, an enemy alien, and he was therefore under no obligation to serve. Imprisoned at McNeil Island Penitentiary, Washington. Vocal critic of the Japanese American Citizens League. Resettled in Seattle, Washington. Thought by some to be the model for the main character in John Okada's No-No Boy.","generation":"Nisei","d_date":"1998-09-22T00:00:00","birth_location":"Seattle, Washington","b_date":"1920-01-25T00:00:00"},{"id":"280","model":"narrator","index":"14 14/{'value': 880, 'relation': 'eq'}","links":{"html":"http://ddr.densho.org/narrators/280/?format=json","json":"http://ddr.densho.org/api/0.2/narrator/280/?format=json","img":"https://ddr.densho.org/media/narrators/adorothy.jpg","thumb":"https://ddr.densho.org/media/narrators/adorothy.jpg","interviews":"http://ddr.densho.org/api/0.2/narrator/280/interviews/?format=json"},"display_name":"Dorothy Almojuela","bio":"Female of Suquamish and Filipino descent. Born January 25, 1918. Grew up on the Squamish Reservation near Vancouver, British Columbia, Canada. Moved to Bainbridge Island to work on the strawberry farms in 1942, and married and raised a family there.","generation":"","d_date":"2011-11-26T00:00:00","birth_location":"Squamish Reservation near Vancouver, BC.","b_date":"1918-01-25T00:00:00"},{"id":"791","model":"narrator","index":"15 15/{'value': 880, 'relation': 'eq'}","links":{"html":"http://ddr.densho.org/narrators/791/?format=json","json":"http://ddr.densho.org/api/0.2/narrator/791/?format=json","img":"https://ddr.densho.org/media/narrators/aalice.jpg","thumb":"https://ddr.densho.org/media/narrators/aalice.jpg","interviews":"http://ddr.densho.org/api/0.2/narrator/791/interviews/?format=json"},"display_name":"Alice Matsumoto Ando","bio":"Nisei female. Born January 2, 1933, in Portland, Oregon. Grew up in Portland, where parents ran a hotel. During World War II, removed to the Portland Assembly Center, Oregon, and the Minidoka concentration camp, Idaho. After leaving camp, returned to Portland.","generation":"Nisei","birth_location":"Portland, Oregon","b_date":"1933-01-02T00:00:00"},{"id":"171","model":"narrator","index":"16 16/{'value': 880, 'relation': 'eq'}","links":{"html":"http://ddr.densho.org/narrators/171/?format=json","json":"http://ddr.densho.org/api/0.2/narrator/171/?format=json","img":"https://ddr.densho.org/media/narrators/aemery.jpg","thumb":"https://ddr.densho.org/media/narrators/aemery.jpg","interviews":"http://ddr.densho.org/api/0.2/narrator/171/interviews/?format=json"},"display_name":"Emery Brooks Andrews","bio":"White male. Born November 14, 1937, in Seattle, Washington. Son of Reverend Emery Andrews, the Japanese Baptist Church minister in Seattle for many years. After the Japanese Americans in Seattle were removed to Minidoka concentration camp, Idaho, Emery Brooks moved with family to Twin Falls, Idaho, to minister to Nikkei in camp. Visited Japanese American friends in Minidoka throughout the war years. After World War II, returned to Seattle, attending Bailey Gatzert elementary school. In recent years, returned to the former site of Minidoka concentration camp.","generation":"","birth_location":"Seattle, Washington","b_date":"1937-11-14T00:00:00"},{"id":"586","model":"narrator","index":"17 17/{'value': 880, 'relation': 'eq'}","links":{"html":"http://ddr.densho.org/narrators/586/?format=json","json":"http://ddr.densho.org/api/0.2/narrator/586/?format=json","img":"https://ddr.densho.org/media/narrators/amargie.jpg","thumb":"https://ddr.densho.org/media/narrators/amargie.jpg","interviews":"http://ddr.densho.org/api/0.2/narrator/586/interviews/?format=json"},"display_name":"Margie Nahmias Angel","bio":"White female. Born June 1, 1924, in Seattle, Washington. Grew up in the Central District of Seattle where mother ran a boarding house. Discusses her reaction when her Japanese American peers had to leave Seattle during World War II.","generation":"","birth_location":"Seattle, Washington","b_date":"1924-06-01T00:00:00"},{"id":"844","model":"narrator","index":"18 18/{'value': 880, 'relation': 'eq'}","links":{"html":"http://ddr.densho.org/narrators/844/?format=json","json":"http://ddr.densho.org/api/0.2/narrator/844/?format=json","img":"https://ddr.densho.org/media/narrators/adan.jpg","thumb":"https://ddr.densho.org/media/narrators/adan.jpg","interviews":"http://ddr.densho.org/api/0.2/narrator/844/interviews/?format=json"},"display_name":"Dan Aoki","bio":"Nisei male. Born January 31, 1918, in Kealakekua, Hawai'i, where his father was a Congregational preacher. During World War II, served with the 100th Battalion in Europe. In the 1950s, was active in Hawai'i's Democratic Party and campaign for statehood.","generation":"Nisei","d_date":"1986-06-11T00:00:00","birth_location":"Kealakekua, Hawai'i","b_date":"1918-01-31T00:00:00"},{"id":"518","model":"narrator","index":"19 19/{'value': 880, 'relation': 'eq'}","links":{"html":"http://ddr.densho.org/narrators/518/?format=json","json":"http://ddr.densho.org/api/0.2/narrator/518/?format=json","img":"https://ddr.densho.org/media/narrators/anancy.jpg","thumb":"https://ddr.densho.org/media/narrators/anancy.jpg","interviews":"http://ddr.densho.org/api/0.2/narrator/518/interviews/?format=json"},"display_name":"Nancy K. Araki","bio":"Sansei female. Born October 16, 1937, in San Francisco, California. During World War II, removed to the Granada (Amache) concentration camp, Colorado. Family briefly left camp for Utah before voluntarily entering the Topaz concentration camp, Utah, when mother was pregnant. After leaving camp, returned to San Francisco and resumed elementary school.","generation":"Nisei","birth_location":"San Francisco, California","b_date":"1937-10-16T00:00:00"},{"id":"651","model":"narrator","index":"20 20/{'value': 880, 'relation': 'eq'}","links":{"html":"http://ddr.densho.org/narrators/651/?format=json","json":"http://ddr.densho.org/api/0.2/narrator/651/?format=json","img":"https://ddr.densho.org/media/narrators/asam.jpg","thumb":"https://ddr.densho.org/media/narrators/asam.jpg","interviews":"http://ddr.densho.org/api/0.2/narrator/651/interviews/?format=json"},"display_name":"Sam Araki","bio":"Nisei male. Born July 12, 1931, in Saratoga, California. Grew up in Saratoga, where father worked as a gardener on a large estate. After the bombing of Pearl Harbor, father moved the family inland to Reedley in an attempt to avoid mass removal. Eventually removed to Poston concentration camp, Arizona. After leaving camp, returned to California and graduated from Stanford University with a master's in mechanical engineer. Went on to establish a prestigous career in the aerospace industry, becoming president of Lockheed Martin Missiles & Space.","generation":"Nisei","birth_location":"Saratoga, California","b_date":"1931-07-12T00:00:00"},{"id":"887","model":"narrator","index":"21 21/{'value': 880, 'relation': 'eq'}","links":{"html":"http://ddr.densho.org/narrators/887/?format=json","json":"http://ddr.densho.org/api/0.2/narrator/887/?format=json","img":"https://ddr.densho.org/media/narrators/asakaye.jpg","thumb":"https://ddr.densho.org/media/narrators/asakaye.jpg","interviews":"http://ddr.densho.org/api/0.2/narrator/887/interviews/?format=json"},"display_name":"Sakaye Aratani","bio":"Nisei female. Born December 11, 1919, in Los Angeles, California. Grew up in Gardena, where parents ran a chicken farm. After the bombing of Pearl Harbor, moved temporarily to live with family in Reedley, California, then was removed to the Poston concentration camp, Arizona. While on a visit to a different camp, Sakaye met her future husband, George Aratani, and they married in Minneapolis, Minnesota, while George was serving in the Military Intelligence Service. After leaving camp, Sakaye and George returned to Los Angeles and raised a family. Sakaye was a founding member of the Montebello Japanese Women's Club, and was also one of the first women to serve on the board of the Sumitomo Bank of California.","generation":"Nisei","birth_location":"Los Angeles, California","b_date":"1919-12-11T00:00:00"},{"id":"3","model":"narrator","index":"22 22/{'value': 880, 'relation': 'eq'}","links":{"html":"http://ddr.densho.org/narrators/3/?format=json","json":"http://ddr.densho.org/api/0.2/narrator/3/?format=json","img":"https://ddr.densho.org/media/narrators/aterry.jpg","thumb":"https://ddr.densho.org/media/narrators/aterry.jpg","interviews":"http://ddr.densho.org/api/0.2/narrator/3/interviews/?format=json"},"display_name":"Terry Aratani","bio":"Nisei male. During World War II, served with I Company, part of the 442nd Regimental Combat Team, an all-Japanese American fighting unit and one of the most highly decorated military units in U.S. history. During his interview he discusses his experiences training at Camp Shelby, Mississippi, and fighting in Europe during such battles as the battle of the \"Lost Battalion.\"","generation":"Nisei","birth_location":""},{"id":"517","model":"narrator","index":"23 23/{'value': 880, 'relation': 'eq'}","links":{"html":"http://ddr.densho.org/narrators/517/?format=json","json":"http://ddr.densho.org/api/0.2/narrator/517/?format=json","img":"https://ddr.densho.org/media/narrators/ayoshiko.jpg","thumb":"https://ddr.densho.org/media/narrators/ayoshiko.jpg","interviews":"http://ddr.densho.org/api/0.2/narrator/517/interviews/?format=json"},"display_name":"Yoshiko Asakura","bio":"Japanese female. Born November 29, 1930, in Shizuoka, Japan. Attended school during World War II. After the war, entered the nursing profession and became involved in a number of social and political causes. In the 1960s, married a Kibei Nisei and moved to the United States.","generation":"Issei","birth_location":"Shizuoka, Japan","b_date":"1930-11-29T00:00:00"},{"id":"640","model":"narrator","index":"24 24/{'value': 880, 'relation': 'eq'}","links":{"html":"http://ddr.densho.org/narrators/640/?format=json","json":"http://ddr.densho.org/api/0.2/narrator/640/?format=json","img":"https://ddr.densho.org/media/narrators/asetsuko.jpg","thumb":"https://ddr.densho.org/media/narrators/asetsuko.jpg","interviews":"http://ddr.densho.org/api/0.2/narrator/640/interviews/?format=json"},"display_name":"Setsuko Izumi Asano","bio":"Nisei female. Born March 3, 1932, in the Boyle Heights neighborhood of Los Angeles, California. During World War II, removed to the Santa Anita Assembly Center, California, and the Rohwer concentration camp, Arkansas. After leaving camp, moved with family to New Orleans, Louisiana. Remained in New Orleans for thirteen years, finishing school and establishing a career as a microbiologist. Eventually returned to Los Angeles.","generation":"Nisei","birth_location":"Los Angeles, California","b_date":"1922-03-03T00:00:00"}],"query":{"sort":["last_name","first_name","middle_name"],"_source":["id","display_name","image_url","generation","birth_location","b_date","d_date","bio"]},"aggregations":{}}